[
   {
      "created_at":"Tue Apr 19 03:44:04 +0000 2022",
      "id":1516261319711895560,
      "id_str":"1516261319711895560",
      "text":"@randolfeap @LulaOficial @lucasabrahao É  melhor Jair se acostumado, #BolsonaroReeleitoEm2022 , essa sua aliança aí  não  vai rolar",
      "display_text_range":[
         39,
         131
      ],
      "source":"<a href=\"http://twitter.com/download/android\" rel=\"nofollow\">Twitter for Android</a>",
      "truncated":false,
      "in_reply_to_status_id":1516164097917739011,
      "in_reply_to_status_id_str":"1516164097917739011",
      "in_reply_to_user_id":85327394,
      "in_reply_to_user_id_str":"85327394",
      "in_reply_to_screen_name":"randolfeap",
      "user":{
         "id":66735399,
         "id_str":"66735399",
         "name":"Simone G. Franco",
         "screen_name":"Sigfranco",
         "location":"None",
         "url":"None",
         "description":"None",
         "translator_type":"none",
         "protected":false,
         "verified":false,
         "followers_count":410,
         "friends_count":751,
         "listed_count":0,
         "favourites_count":10928,
         "statuses_count":1736,
         "created_at":"Tue Aug 18 17:08:53 +0000 2009",
         "utc_offset":"None",
         "time_zone":"None",
         "geo_enabled":false,
         "lang":"None",
         "contributors_enabled":false,
         "is_translator":false,
         "profile_background_color":"8B542B",
         "profile_background_image_url":"http://abs.twimg.com/images/themes/theme1/bg.png",
         "profile_background_image_url_https":"https://abs.twimg.com/images/themes/theme1/bg.png",
         "profile_background_tile":false,
         "profile_link_color":"9D582E",
         "profile_sidebar_border_color":"D9B17E",
         "profile_sidebar_fill_color":"EADEAA",
         "profile_text_color":"333333",
         "profile_use_background_image":true,
         "profile_image_url":"http://pbs.twimg.com/profile_images/370288999/niver_do_Beto_009_normal.jpg",
         "profile_image_url_https":"https://pbs.twimg.com/profile_images/370288999/niver_do_Beto_009_normal.jpg",
         "default_profile":false,
         "default_profile_image":false,
         "following":"None",
         "follow_request_sent":"None",
         "notifications":"None",
         "withheld_in_countries":[
            
         ]
      },
      "geo":"None",
      "coordinates":"None",
      "place":"None",
      "contributors":"None",
      "is_quote_status":false,
      "quote_count":0,
      "reply_count":0,
      "retweet_count":0,
      "favorite_count":0,
      "entities":{
         "hashtags":[
            {
               "text":"BolsonaroReeleitoEm2022",
               "indices":[
                  69,
                  93
               ]
            }
         ],
         "urls":[
            
         ],
         "user_mentions":[
            {
               "screen_name":"randolfeap",
               "name":"Randolfe Rodrigues 💉👓",
               "id":85327394,
               "id_str":"85327394",
               "indices":[
                  0,
                  11
               ]
            },
            {
               "screen_name":"LulaOficial",
               "name":"Lula",
               "id":2670726740,
               "id_str":"2670726740",
               "indices":[
                  12,
                  24
               ]
            },
            {
               "screen_name":"lucasabrahao",
               "name":"Lucas Abrahão",
               "id":62103012,
               "id_str":"62103012",
               "indices":[
                  25,
                  38
               ]
            }
         ],
         "symbols":[
            
         ]
      },
      "favorited":false,
      "retweeted":false,
      "filter_level":"low",
      "lang":"pt",
      "timestamp_ms":"1650339844049"
   },
   {
      "created_at":"Tue Apr 19 03:44:17 +0000 2022",
      "id":1516261375055699969,
      "id_str":"1516261375055699969",
      "text":"RT @claudiopalheta: Mente que nem sente...",
      "source":"<a href=\"http://twitter.com/download/android\" rel=\"nofollow\">Twitter for Android</a>",
      "truncated":false,
      "in_reply_to_status_id":"None",
      "in_reply_to_status_id_str":"None",
      "in_reply_to_user_id":"None",
      "in_reply_to_user_id_str":"None",
      "in_reply_to_screen_name":"None",
      "user":{
         "id":1239952087527706634,
         "id_str":"1239952087527706634",
         "name":"🤩gayLulista13🚩🌈🌟😍",
         "screen_name":"gayLulista13",
         "location":"None",
         "url":"None",
         "description":"A quem se diz de Esquerda e ainda defende outro candidato, favor não me seguir, pq n aceito hipócrisia, ignorância e falta de memória!!",
         "translator_type":"none",
         "protected":false,
         "verified":false,
         "followers_count":4184,
         "friends_count":391,
         "listed_count":6,
         "favourites_count":332216,
         "statuses_count":360307,
         "created_at":"Tue Mar 17 16:30:22 +0000 2020",
         "utc_offset":"None",
         "time_zone":"None",
         "geo_enabled":false,
         "lang":"None",
         "contributors_enabled":false,
         "is_translator":false,
         "profile_background_color":"F5F8FA",
         "profile_background_image_url":"",
         "profile_background_image_url_https":"",
         "profile_background_tile":false,
         "profile_link_color":"1DA1F2",
         "profile_sidebar_border_color":"C0DEED",
         "profile_sidebar_fill_color":"DDEEF6",
         "profile_text_color":"333333",
         "profile_use_background_image":true,
         "profile_image_url":"http://pbs.twimg.com/profile_images/1452443515909251080/_IhEQwmD_normal.jpg",
         "profile_image_url_https":"https://pbs.twimg.com/profile_images/1452443515909251080/_IhEQwmD_normal.jpg",
         "profile_banner_url":"https://pbs.twimg.com/profile_banners/1239952087527706634/1628641792",
         "default_profile":true,
         "default_profile_image":false,
         "following":"None",
         "follow_request_sent":"None",
         "notifications":"None",
         "withheld_in_countries":[
            
         ]
      },
      "geo":"None",
      "coordinates":"None",
      "place":"None",
      "contributors":"None",
      "retweeted_status":{
         "created_at":"Sun Apr 17 13:21:50 +0000 2022",
         "id":1515681944561930241,
         "id_str":"1515681944561930241",
         "text":"Mente que nem sente...",
         "source":"<a href=\"http://twitter.com/download/android\" rel=\"nofollow\">Twitter for Android</a>",
         "truncated":false,
         "in_reply_to_status_id":"None",
         "in_reply_to_status_id_str":"None",
         "in_reply_to_user_id":"None",
         "in_reply_to_user_id_str":"None",
         "in_reply_to_screen_name":"None",
         "user":{
            "id":81632336,
            "id_str":"81632336",
            "name":"Cláudio Aluisio",
            "screen_name":"claudiopalheta",
            "location":"Amazonas, Brasil",
            "url":"None",
            "description":"Caboclinho, amazonense de Manaus, da pátria d'água com muito orgulho! Sou música & poesia, Sou iguarapé, porto de lenha\\U0001f6d6",
            "translator_type":"none",
            "protected":false,
            "verified":false,
            "followers_count":84,
            "friends_count":419,
            "listed_count":1,
            "favourites_count":21621,
            "statuses_count":2312,
            "created_at":"Sun Oct 11 16:38:16 +0000 2009",
            "utc_offset":"None",
            "time_zone":"None",
            "geo_enabled":true,
            "lang":"None",
            "contributors_enabled":false,
            "is_translator":false,
            "profile_background_color":"131516",
            "profile_background_image_url":"http://abs.twimg.com/images/themes/theme14/bg.gif",
            "profile_background_image_url_https":"https://abs.twimg.com/images/themes/theme14/bg.gif",
            "profile_background_tile":true,
            "profile_link_color":"009999",
            "profile_sidebar_border_color":"FFFFFF",
            "profile_sidebar_fill_color":"EFEFEF",
            "profile_text_color":"333333",
            "profile_use_background_image":true,
            "profile_image_url":"http://pbs.twimg.com/profile_images/1514439502034616329/bFzYRXky_normal.jpg",
            "profile_image_url_https":"https://pbs.twimg.com/profile_images/1514439502034616329/bFzYRXky_normal.jpg",
            "profile_banner_url":"https://pbs.twimg.com/profile_banners/81632336/1485128254",
            "default_profile":false,
            "default_profile_image":false,
            "following":"None",
            "follow_request_sent":"None",
            "notifications":"None",
            "withheld_in_countries":[
               
            ]
         },
         "geo":"None",
         "coordinates":"None",
         "place":{
            "id":"45e3bce63f2beeee",
            "url":"https://api.twitter.com/1.1/geo/id/45e3bce63f2beeee.json",
            "place_type":"city",
            "name":"Manaus",
            "full_name":"Manaus, Brasil",
            "country_code":"BR",
            "country":"Brasil",
            "bounding_box":{
               "type":"Polygon",
               "coordinates":[
                  [
                     [
                        -60.802071,
                        -3.221228
                     ],
                     [
                        -60.802071,
                        -1.923622
                     ],
                     [
                        -59.15858,
                        -1.923622
                     ],
                     [
                        -59.15858,
                        -3.221228
                     ]
                  ]
               ]
            },
            "attributes":{
               
            }
         },
         "contributors":"None",
         "quoted_status_id":1515380583932825618,
         "quoted_status_id_str":"1515380583932825618",
         "quoted_status":{
            "created_at":"Sat Apr 16 17:24:20 +0000 2022",
            "id":1515380583932825618,
            "id_str":"1515380583932825618",
            "text":"Jair Bolsonaro primeiro não sabia o que era o PIX. Quando descobriu, resolveu mentir sobre a motivação da criação d… https://t.co/3uSldvbSMp",
            "source":"<a href=\"https://mobile.twitter.com\" rel=\"nofollow\">Twitter Web App</a>",
            "truncated":true,
            "in_reply_to_status_id":"None",
            "in_reply_to_status_id_str":"None",
            "in_reply_to_user_id":"None",
            "in_reply_to_user_id_str":"None",
            "in_reply_to_screen_name":"None",
            "user":{
               "id":1345206382312775680,
               "id_str":"1345206382312775680",
               "name":"Desmentindo Bolsonaro",
               "screen_name":"desmentindobozo",
               "location":"Brasil",
               "url":"None",
               "description":"“E conhecereis a verdade, e a verdade vos libertará”. Desmentindo o Presidente da República. Também estamos no Instagram, Facebook, Telegram e no Youtube.",
               "translator_type":"none",
               "protected":false,
               "verified":false,
               "followers_count":307507,
               "friends_count":109,
               "listed_count":555,
               "favourites_count":11925,
               "statuses_count":9558,
               "created_at":"Sat Jan 02 03:13:07 +0000 2021",
               "utc_offset":"None",
               "time_zone":"None",
               "geo_enabled":false,
               "lang":"None",
               "contributors_enabled":false,
               "is_translator":false,
               "profile_background_color":"F5F8FA",
               "profile_background_image_url":"",
               "profile_background_image_url_https":"",
               "profile_background_tile":false,
               "profile_link_color":"1DA1F2",
               "profile_sidebar_border_color":"C0DEED",
               "profile_sidebar_fill_color":"DDEEF6",
               "profile_text_color":"333333",
               "profile_use_background_image":true,
               "profile_image_url":"http://pbs.twimg.com/profile_images/1346466295307333634/fHuwIVjP_normal.jpg",
               "profile_image_url_https":"https://pbs.twimg.com/profile_images/1346466295307333634/fHuwIVjP_normal.jpg",
               "profile_banner_url":"https://pbs.twimg.com/profile_banners/1345206382312775680/1609858410",
               "default_profile":true,
               "default_profile_image":false,
               "following":"None",
               "follow_request_sent":"None",
               "notifications":"None",
               "withheld_in_countries":[
                  
               ]
            },
            "geo":"None",
            "coordinates":"None",
            "place":"None",
            "contributors":"None",
            "is_quote_status":false,
            "extended_tweet":{
               "full_text":"Jair Bolsonaro primeiro não sabia o que era o PIX. Quando descobriu, resolveu mentir sobre a motivação da criação do sistema de pagamento instantâneo, idealizado bem antes da pandemia.\nhttps://t.co/S1YqFcPZOI",
               "display_text_range":[
                  0,
                  208
               ],
               "entities":{
                  "hashtags":[
                     
                  ],
                  "urls":[
                     
                  ],
                  "user_mentions":[
                     
                  ],
                  "symbols":[
                     
                  ],
                  "media":[
                     {
                        "id":1515372342700134404,
                        "id_str":"1515372342700134404",
                        "indices":[
                           185,
                           208
                        ],
                        "additional_media_info":{
                           "monetizable":false
                        },
                        "media_url":"http://pbs.twimg.com/media/FQevkGHWQAgdCg0.jpg",
                        "media_url_https":"https://pbs.twimg.com/media/FQevkGHWQAgdCg0.jpg",
                        "url":"https://t.co/S1YqFcPZOI",
                        "display_url":"pic.twitter.com/S1YqFcPZOI",
                        "expanded_url":"https://twitter.com/desmentindobozo/status/1515372717792452619/video/1",
                        "type":"video",
                        "video_info":{
                           "aspect_ratio":[
                              16,
                              9
                           ],
                           "duration_millis":69400,
                           "variants":[
                              {
                                 "bitrate":832000,
                                 "content_type":"video/mp4",
                                 "url":"https://video.twimg.com/ext_tw_video/1515372342700134404/pu/vid/640x360/y7YAsli-KGKeowdb.mp4?tag=12"
                              },
                              {
                                 "bitrate":2176000,
                                 "content_type":"video/mp4",
                                 "url":"https://video.twimg.com/ext_tw_video/1515372342700134404/pu/vid/1280x720/E0yPApSoKwLlGkHh.mp4?tag=12"
                              },
                              {
                                 "bitrate":256000,
                                 "content_type":"video/mp4",
                                 "url":"https://video.twimg.com/ext_tw_video/1515372342700134404/pu/vid/480x270/sAhCei8H_H3gRDJp.mp4?tag=12"
                              },
                              {
                                 "content_type":"application/x-mpegURL",
                                 "url":"https://video.twimg.com/ext_tw_video/1515372342700134404/pu/pl/pEFTJG-4JRZ_nutx.m3u8?tag=12&container=fmp4"
                              }
                           ]
                        },
                        "sizes":{
                           "thumb":{
                              "w":150,
                              "h":150,
                              "resize":"crop"
                           },
                           "large":{
                              "w":1920,
                              "h":1080,
                              "resize":"fit"
                           },
                           "medium":{
                              "w":1200,
                              "h":675,
                              "resize":"fit"
                           },
                           "small":{
                              "w":680,
                              "h":383,
                              "resize":"fit"
                           }
                        },
                        "source_status_id":1515372717792452619,
                        "source_status_id_str":"1515372717792452619",
                        "source_user_id":1345206382312775680,
                        "source_user_id_str":"1345206382312775680"
                     }
                  ]
               },
               "extended_entities":{
                  "media":[
                     {
                        "id":1515372342700134404,
                        "id_str":"1515372342700134404",
                        "indices":[
                           185,
                           208
                        ],
                        "additional_media_info":{
                           "monetizable":false
                        },
                        "media_url":"http://pbs.twimg.com/media/FQevkGHWQAgdCg0.jpg",
                        "media_url_https":"https://pbs.twimg.com/media/FQevkGHWQAgdCg0.jpg",
                        "url":"https://t.co/S1YqFcPZOI",
                        "display_url":"pic.twitter.com/S1YqFcPZOI",
                        "expanded_url":"https://twitter.com/desmentindobozo/status/1515372717792452619/video/1",
                        "type":"video",
                        "video_info":{
                           "aspect_ratio":[
                              16,
                              9
                           ],
                           "duration_millis":69400,
                           "variants":[
                              {
                                 "bitrate":832000,
                                 "content_type":"video/mp4",
                                 "url":"https://video.twimg.com/ext_tw_video/1515372342700134404/pu/vid/640x360/y7YAsli-KGKeowdb.mp4?tag=12"
                              },
                              {
                                 "bitrate":2176000,
                                 "content_type":"video/mp4",
                                 "url":"https://video.twimg.com/ext_tw_video/1515372342700134404/pu/vid/1280x720/E0yPApSoKwLlGkHh.mp4?tag=12"
                              },
                              {
                                 "bitrate":256000,
                                 "content_type":"video/mp4",
                                 "url":"https://video.twimg.com/ext_tw_video/1515372342700134404/pu/vid/480x270/sAhCei8H_H3gRDJp.mp4?tag=12"
                              },
                              {
                                 "content_type":"application/x-mpegURL",
                                 "url":"https://video.twimg.com/ext_tw_video/1515372342700134404/pu/pl/pEFTJG-4JRZ_nutx.m3u8?tag=12&container=fmp4"
                              }
                           ]
                        },
                        "sizes":{
                           "thumb":{
                              "w":150,
                              "h":150,
                              "resize":"crop"
                           },
                           "large":{
                              "w":1920,
                              "h":1080,
                              "resize":"fit"
                           },
                           "medium":{
                              "w":1200,
                              "h":675,
                              "resize":"fit"
                           },
                           "small":{
                              "w":680,
                              "h":383,
                              "resize":"fit"
                           }
                        },
                        "source_status_id":1515372717792452619,
                        "source_status_id_str":"1515372717792452619",
                        "source_user_id":1345206382312775680,
                        "source_user_id_str":"1345206382312775680"
                     }
                  ]
               }
            },
            "quote_count":62,
            "reply_count":134,
            "retweet_count":505,
            "favorite_count":2511,
            "entities":{
               "hashtags":[
                  
               ],
               "urls":[
                  {
                     "url":"https://t.co/3uSldvbSMp",
                     "expanded_url":"https://twitter.com/i/web/status/1515380583932825618",
                     "display_url":"twitter.com/i/web/status/1…",
                     "indices":[
                        117,
                        140
                     ]
                  }
               ],
               "user_mentions":[
                  
               ],
               "symbols":[
                  
               ]
            },
            "favorited":false,
            "retweeted":false,
            "possibly_sensitive":false,
            "filter_level":"low",
            "lang":"pt"
         },
         "quoted_status_permalink":{
            "url":"https://t.co/qi4IHGjOZl",
            "expanded":"https://twitter.com/desmentindobozo/status/1515380583932825618",
            "display":"twitter.com/desmentindoboz…"
         },
         "is_quote_status":true,
         "quote_count":1,
         "reply_count":6,
         "retweet_count":46,
         "favorite_count":324,
         "entities":{
            "hashtags":[
               
            ],
            "urls":[
               
            ],
            "user_mentions":[
               
            ],
            "symbols":[
               
            ]
         },
         "favorited":false,
         "retweeted":false,
         "filter_level":"low",
         "lang":"pt"
      },
      "quoted_status_id":1515380583932825618,
      "quoted_status_id_str":"1515380583932825618",
      "quoted_status":{
         "created_at":"Sat Apr 16 17:24:20 +0000 2022",
         "id":1515380583932825618,
         "id_str":"1515380583932825618",
         "text":"Jair Bolsonaro primeiro não sabia o que era o PIX. Quando descobriu, resolveu mentir sobre a motivação da criação d… https://t.co/3uSldvbSMp",
         "source":"<a href=\"https://mobile.twitter.com\" rel=\"nofollow\">Twitter Web App</a>",
         "truncated":true,
         "in_reply_to_status_id":"None",
         "in_reply_to_status_id_str":"None",
         "in_reply_to_user_id":"None",
         "in_reply_to_user_id_str":"None",
         "in_reply_to_screen_name":"None",
         "user":{
            "id":1345206382312775680,
            "id_str":"1345206382312775680",
            "name":"Desmentindo Bolsonaro",
            "screen_name":"desmentindobozo",
            "location":"Brasil",
            "url":"None",
            "description":"“E conhecereis a verdade, e a verdade vos libertará”. Desmentindo o Presidente da República. Também estamos no Instagram, Facebook, Telegram e no Youtube.",
            "translator_type":"none",
            "protected":false,
            "verified":false,
            "followers_count":307507,
            "friends_count":109,
            "listed_count":555,
            "favourites_count":11925,
            "statuses_count":9558,
            "created_at":"Sat Jan 02 03:13:07 +0000 2021",
            "utc_offset":"None",
            "time_zone":"None",
            "geo_enabled":false,
            "lang":"None",
            "contributors_enabled":false,
            "is_translator":false,
            "profile_background_color":"F5F8FA",
            "profile_background_image_url":"",
            "profile_background_image_url_https":"",
            "profile_background_tile":false,
            "profile_link_color":"1DA1F2",
            "profile_sidebar_border_color":"C0DEED",
            "profile_sidebar_fill_color":"DDEEF6",
            "profile_text_color":"333333",
            "profile_use_background_image":true,
            "profile_image_url":"http://pbs.twimg.com/profile_images/1346466295307333634/fHuwIVjP_normal.jpg",
            "profile_image_url_https":"https://pbs.twimg.com/profile_images/1346466295307333634/fHuwIVjP_normal.jpg",
            "profile_banner_url":"https://pbs.twimg.com/profile_banners/1345206382312775680/1609858410",
            "default_profile":true,
            "default_profile_image":false,
            "following":"None",
            "follow_request_sent":"None",
            "notifications":"None",
            "withheld_in_countries":[
               
            ]
         },
         "geo":"None",
         "coordinates":"None",
         "place":"None",
         "contributors":"None",
         "is_quote_status":false,
         "extended_tweet":{
            "full_text":"Jair Bolsonaro primeiro não sabia o que era o PIX. Quando descobriu, resolveu mentir sobre a motivação da criação do sistema de pagamento instantâneo, idealizado bem antes da pandemia.\nhttps://t.co/S1YqFcPZOI",
            "display_text_range":[
               0,
               208
            ],
            "entities":{
               "hashtags":[
                  
               ],
               "urls":[
                  
               ],
               "user_mentions":[
                  
               ],
               "symbols":[
                  
               ],
               "media":[
                  {
                     "id":1515372342700134404,
                     "id_str":"1515372342700134404",
                     "indices":[
                        185,
                        208
                     ],
                     "additional_media_info":{
                        "monetizable":false
                     },
                     "media_url":"http://pbs.twimg.com/media/FQevkGHWQAgdCg0.jpg",
                     "media_url_https":"https://pbs.twimg.com/media/FQevkGHWQAgdCg0.jpg",
                     "url":"https://t.co/S1YqFcPZOI",
                     "display_url":"pic.twitter.com/S1YqFcPZOI",
                     "expanded_url":"https://twitter.com/desmentindobozo/status/1515372717792452619/video/1",
                     "type":"video",
                     "video_info":{
                        "aspect_ratio":[
                           16,
                           9
                        ],
                        "duration_millis":69400,
                        "variants":[
                           {
                              "bitrate":832000,
                              "content_type":"video/mp4",
                              "url":"https://video.twimg.com/ext_tw_video/1515372342700134404/pu/vid/640x360/y7YAsli-KGKeowdb.mp4?tag=12"
                           },
                           {
                              "bitrate":2176000,
                              "content_type":"video/mp4",
                              "url":"https://video.twimg.com/ext_tw_video/1515372342700134404/pu/vid/1280x720/E0yPApSoKwLlGkHh.mp4?tag=12"
                           },
                           {
                              "bitrate":256000,
                              "content_type":"video/mp4",
                              "url":"https://video.twimg.com/ext_tw_video/1515372342700134404/pu/vid/480x270/sAhCei8H_H3gRDJp.mp4?tag=12"
                           },
                           {
                              "content_type":"application/x-mpegURL",
                              "url":"https://video.twimg.com/ext_tw_video/1515372342700134404/pu/pl/pEFTJG-4JRZ_nutx.m3u8?tag=12&container=fmp4"
                           }
                        ]
                     },
                     "sizes":{
                        "thumb":{
                           "w":150,
                           "h":150,
                           "resize":"crop"
                        },
                        "large":{
                           "w":1920,
                           "h":1080,
                           "resize":"fit"
                        },
                        "medium":{
                           "w":1200,
                           "h":675,
                           "resize":"fit"
                        },
                        "small":{
                           "w":680,
                           "h":383,
                           "resize":"fit"
                        }
                     },
                     "source_status_id":1515372717792452619,
                     "source_status_id_str":"1515372717792452619",
                     "source_user_id":1345206382312775680,
                     "source_user_id_str":"1345206382312775680"
                  }
               ]
            },
            "extended_entities":{
               "media":[
                  {
                     "id":1515372342700134404,
                     "id_str":"1515372342700134404",
                     "indices":[
                        185,
                        208
                     ],
                     "additional_media_info":{
                        "monetizable":false
                     },
                     "media_url":"http://pbs.twimg.com/media/FQevkGHWQAgdCg0.jpg",
                     "media_url_https":"https://pbs.twimg.com/media/FQevkGHWQAgdCg0.jpg",
                     "url":"https://t.co/S1YqFcPZOI",
                     "display_url":"pic.twitter.com/S1YqFcPZOI",
                     "expanded_url":"https://twitter.com/desmentindobozo/status/1515372717792452619/video/1",
                     "type":"video",
                     "video_info":{
                        "aspect_ratio":[
                           16,
                           9
                        ],
                        "duration_millis":69400,
                        "variants":[
                           {
                              "bitrate":832000,
                              "content_type":"video/mp4",
                              "url":"https://video.twimg.com/ext_tw_video/1515372342700134404/pu/vid/640x360/y7YAsli-KGKeowdb.mp4?tag=12"
                           },
                           {
                              "bitrate":2176000,
                              "content_type":"video/mp4",
                              "url":"https://video.twimg.com/ext_tw_video/1515372342700134404/pu/vid/1280x720/E0yPApSoKwLlGkHh.mp4?tag=12"
                           },
                           {
                              "bitrate":256000,
                              "content_type":"video/mp4",
                              "url":"https://video.twimg.com/ext_tw_video/1515372342700134404/pu/vid/480x270/sAhCei8H_H3gRDJp.mp4?tag=12"
                           },
                           {
                              "content_type":"application/x-mpegURL",
                              "url":"https://video.twimg.com/ext_tw_video/1515372342700134404/pu/pl/pEFTJG-4JRZ_nutx.m3u8?tag=12&container=fmp4"
                           }
                        ]
                     },
                     "sizes":{
                        "thumb":{
                           "w":150,
                           "h":150,
                           "resize":"crop"
                        },
                        "large":{
                           "w":1920,
                           "h":1080,
                           "resize":"fit"
                        },
                        "medium":{
                           "w":1200,
                           "h":675,
                           "resize":"fit"
                        },
                        "small":{
                           "w":680,
                           "h":383,
                           "resize":"fit"
                        }
                     },
                     "source_status_id":1515372717792452619,
                     "source_status_id_str":"1515372717792452619",
                     "source_user_id":1345206382312775680,
                     "source_user_id_str":"1345206382312775680"
                  }
               ]
            }
         },
         "quote_count":62,
         "reply_count":134,
         "retweet_count":505,
         "favorite_count":2511,
         "entities":{
            "hashtags":[
               
            ],
            "urls":[
               {
                  "url":"https://t.co/3uSldvbSMp",
                  "expanded_url":"https://twitter.com/i/web/status/1515380583932825618",
                  "display_url":"twitter.com/i/web/status/1…",
                  "indices":[
                     117,
                     140
                  ]
               }
            ],
            "user_mentions":[
               
            ],
            "symbols":[
               
            ]
         },
         "favorited":false,
         "retweeted":false,
         "possibly_sensitive":false,
         "filter_level":"low",
         "lang":"pt"
      },
      "quoted_status_permalink":{
         "url":"https://t.co/qi4IHGjOZl",
         "expanded":"https://twitter.com/desmentindobozo/status/1515380583932825618",
         "display":"twitter.com/desmentindoboz…"
      },
      "is_quote_status":true,
      "quote_count":0,
      "reply_count":0,
      "retweet_count":0,
      "favorite_count":0,
      "entities":{
         "hashtags":[
            
         ],
         "urls":[
            
         ],
         "user_mentions":[
            {
               "screen_name":"claudiopalheta",
               "name":"Cláudio Aluisio",
               "id":81632336,
               "id_str":"81632336",
               "indices":[
                  3,
                  18
               ]
            }
         ],
         "symbols":[
            
         ]
      },
      "favorited":false,
      "retweeted":false,
      "filter_level":"low",
      "lang":"pt",
      "timestamp_ms":"1650339857244"
   },
   {
      "created_at":"Tue Apr 19 03:44:31 +0000 2022",
      "id":1516261433285169154,
      "id_str":"1516261433285169154",
      "text":"@FutebolBoomers Votaria no capitão Jair messias Bolsonaro com orgulho! Tirem esse mendigo da minha TL antes que eu cometa essa atrocidade",
      "display_text_range":[
         16,
         137
      ],
      "source":"<a href=\"http://twitter.com/download/android\" rel=\"nofollow\">Twitter for Android</a>",
      "truncated":false,
      "in_reply_to_status_id":1516214987257257990,
      "in_reply_to_status_id_str":"1516214987257257990",
      "in_reply_to_user_id":1343267077185015813,
      "in_reply_to_user_id_str":"1343267077185015813",
      "in_reply_to_screen_name":"FutebolBoomers",
      "user":{
         "id":988953855516991488,
         "id_str":"988953855516991488",
         "name":"͏ ͏ ͏",
         "screen_name":"_Pettter_",
         "location":"Cracolândia",
         "url":"None",
         "description":"Acredito na revoluçao dos macacos, reject humanity, return to monke.\n#Bitcoin\n#LetsGoLiquid",
         "translator_type":"none",
         "protected":false,
         "verified":false,
         "followers_count":115,
         "friends_count":1399,
         "listed_count":0,
         "favourites_count":1121,
         "statuses_count":2089,
         "created_at":"Wed Apr 25 01:32:27 +0000 2018",
         "utc_offset":"None",
         "time_zone":"None",
         "geo_enabled":false,
         "lang":"None",
         "contributors_enabled":false,
         "is_translator":false,
         "profile_background_color":"F5F8FA",
         "profile_background_image_url":"",
         "profile_background_image_url_https":"",
         "profile_background_tile":false,
         "profile_link_color":"1DA1F2",
         "profile_sidebar_border_color":"C0DEED",
         "profile_sidebar_fill_color":"DDEEF6",
         "profile_text_color":"333333",
         "profile_use_background_image":true,
         "profile_image_url":"http://pbs.twimg.com/profile_images/1460655572525715465/77eEEONA_normal.jpg",
         "profile_image_url_https":"https://pbs.twimg.com/profile_images/1460655572525715465/77eEEONA_normal.jpg",
         "default_profile":true,
         "default_profile_image":false,
         "following":"None",
         "follow_request_sent":"None",
         "notifications":"None",
         "withheld_in_countries":[
            
         ]
      },
      "geo":"None",
      "coordinates":"None",
      "place":"None",
      "contributors":"None",
      "is_quote_status":false,
      "quote_count":0,
      "reply_count":0,
      "retweet_count":0,
      "favorite_count":0,
      "entities":{
         "hashtags":[
            
         ],
         "urls":[
            
         ],
         "user_mentions":[
            {
               "screen_name":"FutebolBoomers",
               "name":"Football Boomer Images",
               "id":1343267077185015813,
               "id_str":"1343267077185015813",
               "indices":[
                  0,
                  15
               ]
            }
         ],
         "symbols":[
            
         ]
      },
      "favorited":false,
      "retweeted":false,
      "filter_level":"low",
      "lang":"pt",
      "timestamp_ms":"1650339871127"
   }
]